<svg xmlns="http://www.w3.org/2000/svg" width="158.862" height="100.85" viewBox="0 0 158.862 100.85">
  <g id="Group_942" data-name="Group 942" transform="translate(-112.651 -32)">
    <path id="Path_1102" data-name="Path 1102" d="M144.684,93.531a4.08,4.08,0,0,0,4.125,4.092,5.325,5.325,0,0,0,2.741-.729.325.325,0,0,0,.157-.3V93.951a.151.151,0,0,0-.151-.14h-2.332c-.129,0-.151.05-.151.14v.23c0,.1,0,.146.151.146h1.945v2.147a4.333,4.333,0,0,1-2.371.628,3.593,3.593,0,0,1,0-7.186,3.5,3.5,0,0,1,2.4.958c.073.068.124.079.2,0l.185-.2a.146.146,0,0,0,0-.207,3.923,3.923,0,0,0-2.758-1.059,4.108,4.108,0,0,0-4.125,4.12m-37.48-3.856v7.684a.157.157,0,0,0,.151.151h.235a.157.157,0,0,0,.163-.151V89.675a.151.151,0,0,0-.151-.146h-.252a.151.151,0,0,0-.151.146m-10.01,0v7.684a.151.151,0,0,0,.146.151h4.024a.135.135,0,0,0,.151-.129v-.207c0-.073,0-.146-.151-.146H97.726V89.675a.146.146,0,0,0-.135-.146h-.252a.146.146,0,0,0-.146.146m-21.7.376H77.89a1.973,1.973,0,0,1,2.035,1.917A2,2,0,0,1,77.9,93.951H75.5Zm-.561-.376v7.684a.157.157,0,0,0,.146.151h.207a.163.163,0,0,0,.185-.151V94.428h2.517l1.653,2.987a.168.168,0,0,0,.163.106h.353c.112,0,.135-.118.078-.207l-1.681-2.954a2.444,2.444,0,0,0-.661-4.82h-2.83a.146.146,0,0,0-.146.146M61.507,93.542a3.61,3.61,0,1,1,3.6,3.587,3.61,3.61,0,0,1-3.6-3.587m-.5,0a4.069,4.069,0,1,0,1.186-2.922,4.108,4.108,0,0,0-1.186,2.922M54.77,89.686V97.37a.151.151,0,0,0,.146.151h.241a.157.157,0,0,0,.157-.151v-7.7a.151.151,0,0,0-.151-.146h-.247a.146.146,0,0,0-.146.146M21.538,96.446c-.09.129-.034.185.034.241a3.727,3.727,0,0,0,2.416.936,2.323,2.323,0,0,0,2.489-2.029c0-1.323-.992-1.872-2.556-2.4-1.121-.376-1.889-.8-1.889-1.771,0-.65.521-1.513,1.922-1.513a3.363,3.363,0,0,1,1.681.532.168.168,0,0,0,.252-.056c0-.045.062-.1.09-.146a.168.168,0,0,0-.039-.241,3.75,3.75,0,0,0-1.962-.56,2.177,2.177,0,0,0-2.466,2.018c0,1.312.88,1.777,2.2,2.242s2.208.925,2.208,1.939a1.772,1.772,0,0,1-1.911,1.525,3.363,3.363,0,0,1-2.113-.874c-.09-.084-.168-.045-.247.045Zm7.544-27.133H13.669L21.4,51.41h.084Zm6.541,9.775L22.065,48.165a.56.56,0,0,0-.56-.308h-.129a.617.617,0,0,0-.532.308L7.139,79.087c-.135.353,0,.56.308.56H8.72a.734.734,0,0,0,.628-.4l3.52-8.2H29.833l3.6,8.172a.729.729,0,0,0,.622.4h1.16c.482,0,.482-.269.4-.56m1.424,18.272v-.185A.151.151,0,0,0,36.89,97H32.714V93.638H36.33a.151.151,0,0,0,.151-.146v-.2a.157.157,0,0,0-.151-.151H32.714V90H36.89a.146.146,0,0,0,.146-.146v-.2a.146.146,0,0,0-.146-.146H32.316a.146.146,0,0,0-.146.146v7.684a.151.151,0,0,0,.146.151H36.89a.151.151,0,0,0,.146-.151m11.529-.8-5.47-7.124H42.91a.157.157,0,0,0-.168.151v7.8a.151.151,0,0,0,.151.146h.213a.151.151,0,0,0,.151-.146V90.426h0c5.414,7.163,5.5,7.2,5.515,7.2h.151c.09,0,.179-.045.179-.146v-7.8a.151.151,0,0,0-.146-.151h-.23a.151.151,0,0,0-.146.151v6.872ZM69,47.974h-.869c-.448,0-.622.224-.622.56V67.552c0,5.734-3.643,9.909-9.6,9.909s-9.528-4.226-9.528-9.954V48.54a.56.56,0,0,0-.56-.56h-.942a.56.56,0,0,0-.56.56v19.2c0,6.793,4.574,11.77,11.591,11.77s11.681-4.977,11.681-11.77V48.54a.56.56,0,0,0-.56-.56m35.182-19.813A14.22,14.22,0,0,1,97.4,36.832a12.4,12.4,0,0,1-9.96.465L99.6,26.838c.628.174,3.6,1.014,4.613,1.328m-4.9-1.681L87.312,36.793,97.58,18.336a23.115,23.115,0,0,1,1.738,8.15m-2.152-8.351L87.189,36.053c-.034-2.107-.123-6.165-.224-10.487l5.919-5.734a16.439,16.439,0,0,1,4.277-1.681m-4.747,1.508-5.459,5.3c-.14-6.35-.325-13.043-.325-14.92a18.928,18.928,0,0,1,5.818,9.607m-5.93,5.952c.1,4.316.185,8.374.224,10.476L76.052,18.319c1.39.359,5.655,1.945,10.464,7.286m0-.717a27.262,27.262,0,0,0-6.776-5.571,26.955,26.955,0,0,1,6.418-9.248c.05,1.855.207,8.519.359,14.819m-10.846-6.3,11,18.25L73.625,26.749Zm-2.376,8.458L86.538,37.308a13.452,13.452,0,0,1-10.369-.28,13.653,13.653,0,0,1-7.348-8.861,14.943,14.943,0,0,1,4.484-1.121m31.427,1.014.062-.207-.207-.073c-.723-.241-4.013-1.166-4.8-1.39a23.22,23.22,0,0,0-1.973-8.671l-.073-.146H97.58A15.087,15.087,0,0,0,92.855,19.3a18.67,18.67,0,0,0-6.362-9.943l-.146-.106-.14.118a27.894,27.894,0,0,0-6.894,9.719,11.081,11.081,0,0,0-3.7-1.323h-.2l-2.242,8.861a14.674,14.674,0,0,0-4.742,1.227l-.168.09.05.185c1.328,4.484,3.974,7.7,7.656,9.355A13.928,13.928,0,0,0,81.7,38.7a13.188,13.188,0,0,0,5.285-1.059,15.2,15.2,0,0,0,5.1.936A11.927,11.927,0,0,0,97.6,37.263a14.741,14.741,0,0,0,7.107-9.17m.981,29.93a7.757,7.757,0,0,1-7.847,7.729h-9.4V50.586h9.327a7.664,7.664,0,0,1,7.9,7.46m2.135,0a9.655,9.655,0,0,0-9.9-9.528H86.88a.56.56,0,0,0-.56.56V79.026a.594.594,0,0,0,.56.56h.8a.633.633,0,0,0,.712-.56v-11.4h8.172c.56,0,1.065,0,1.642-.045l6.446,11.636a.617.617,0,0,0,.617.4h1.379c.443,0,.532-.443.308-.8l-6.485-11.507a9.724,9.724,0,0,0,7.331-9.287M120.74,89.686c.039-.09,0-.157-.106-.157h-.3a.129.129,0,0,0-.123.078L117.1,96.687h0l-3.077-7.079a.134.134,0,0,0-.129-.078h-.3c-.106,0-.14.056-.1.146l3.447,7.847a.146.146,0,0,0,.123.106h.056a.14.14,0,0,0,.135-.106Zm6.008-10.649V49.1a.594.594,0,0,0-.56-.56h-1a.594.594,0,0,0-.56.56V79.042a.594.594,0,0,0,.56.56h.936a.6.6,0,0,0,.622-.56m.174,18.317V89.675a.146.146,0,0,0-.146-.146h-.252a.146.146,0,0,0-.146.146v7.684a.151.151,0,0,0,.146.151h.241a.157.157,0,0,0,.157-.151m11.529-.813-5.47-7.124h-.191a.157.157,0,0,0-.174.151v7.8a.146.146,0,0,0,.146.146h.219a.151.151,0,0,0,.151-.146V90.426h0c5.414,7.163,5.5,7.2,5.515,7.2h.151c.09,0,.179-.045.179-.146v-7.8a.151.151,0,0,0-.146-.151h-.23a.157.157,0,0,0-.151.151Zm20.94-27.223H143.983l7.724-17.9h.09Zm6.53,9.775L152.374,48.165a.561.561,0,0,0-.561-.308h-.168a.617.617,0,0,0-.532.308L137.431,79.087c-.129.353,0,.56.314.56h1.244a.729.729,0,0,0,.622-.4l3.554-8.172h16.966l3.6,8.172a.717.717,0,0,0,.622.4h1.155c.488,0,.488-.269.4-.56" transform="translate(105.564 22.75)" fill="#fff"/>
    <rect id="Rectangle_637" data-name="Rectangle 637" width="24.387" height="1.939" transform="translate(179.901 130.91)" fill="#b5a010"/>
  </g>
</svg>
